{
    "type": "service_account",
    "project_id": "api-6512244573301337239-542013",
    "private_key_id": "c710cad08669adc9d4e244c3e3e1ab412b1155f5",
    "private_key": "-----BEGIN PRIVATE KEY-----\nMIIEvwIBADANBgkqhkiG9w0BAQEFAASCBKkwggSlAgEAAoIBAQC7615OeaDoyJrI\nGce6eiAtKBsgUUEhVmRbr2/vzcvc07kBUPvdfW1+cWnv+tG4WZzioCNdR60UXOfB\nQq6PDFifzi5y+Kjq5cvpiaVckMbBgPhRzteVXGztYy/zDyqFShUw/jst3FwKvsz8\nJ9THR1qTTAHdXnJNDLmut+EPYGuo3aMA886e0fbeKC3sz7uQoKC6ztSx+GyPTL1N\n8lk8xeibC6vvxBBcTIDJSpkl9qsEu2iULtU56hXTRdxzgVO83x11h0hN2KlPfA/h\naN280k9FXc3Q4qejZ/VxMBj2SMgFbKKxQOKxfHoEhinmYzszTHNnhucXYy11Ix93\nReyAFylHAgMBAAECggEAVYITJohHxMTLUXQRovPBQmr2dO0kQsQp5GJe//JX6kLY\n8xVjlfRl51w6BT3PQiBct+6ASQi9Y/+mYRUzktneVdEe56foTQKFl93PReCG4DQM\nSkVhaZBl7FruzZ3ADmiYXfPA/+w+YZFSewaw1oDMYSv7yTwZrJ+2uh7npPSN6Icx\nDBHJg7vLaIItGDd7yPBCm9kgxfbi1eISQs544atgBAdAgIaVTolbD+Xe0odYzpbq\ngkG5ODntigY193J0aiXBam/SMYWew/6D7rKnxrgglx3zxaPV72IFwQgWYBQ2ffbZ\nmazrMDY7JkGc22i5PLA//BN8vXwe27oUKNRBHfzLmQKBgQDxKN+Plf9ieJsrNC2M\nIA+2y73Z8OKA/fDJAftgmJHwro+cyH8OfWCUVlaBjwaAFIQE+R4Z/gTcAhtBHUF1\n0+oJDWgrTi2z8EckOlSxI3jkKmLFeC+jrXCBOVu2ESdM6yNcP1/NqPa2hmTTnNqr\nDmX/DAlrjKKvo/eiPERxQVDtHQKBgQDHe8VSyqi+9NA9W+O+27WiQq6hKA07/Wnt\nv23lUP2fUbG3eQCbZVvNDZrVFOXa0+yOgoUmqVjjN2tRNlQX3iOr/bsqnpP+CXqc\nTcTFh5aza2nIa7ncayEE6zsj0qkNRTbzbXzxyuYjq3wF+E9bzyUZTFfMR6xkX66/\nfKPF3C52swKBgQDjTi9KW4uX+S3ojwnPZfjpxyhvYAleo/xsuh2Ccsw8G4zprmFz\n+uEpcCehfnoWB0BYn6arwS47YRDnUvf8Y33YgnaJOusBC51CnGhvfovYI8ttbVcZ\n48SDSNkUxx5P9eIidOmMI5JHgG1QuCuzx6KDv4ixgqFlBBvJIx0v0uzAUQKBgQCM\nRZhns2IdhQC5ZNgs6Uo7ozAw2n0T5gqKx8V7Lwxo74VMQqYOn6OB+UMa+ur2iXca\nbuU6XnLGs72fCdjwP6BN3Mm0GnZueDPjnTv0undaCvoDmNzFBf/d+ZtIgWWmkzkk\ny6TEUayrAHbhq84B/RNVSr2iQ/QRUMcMl5SCGWYCyQKBgQDOjAnCzUMEe1NLtHlT\nZMYtL92gBgrX/wqEfwyXyn2RepL6EnJXkc2mEU0kmyIOSH/Isx+7nPIujbfcie3j\naZ5fRqfJP92tCOXFZm5iOroZxg6EqVgQWXPNo53yzdaQ6i1RiFIpUV7CrHkyfYGa\n0SRc6LzS0LWNKOTdckrLVeYZTw==\n-----END PRIVATE KEY-----\n",
    "client_email": "purchases@api-6512244573301337239-542013.iam.gserviceaccount.com",
    "client_id": "105822556645252634717",
    "auth_uri": "https://accounts.google.com/o/oauth2/auth",
    "token_uri": "https://oauth2.googleapis.com/token",
    "auth_provider_x509_cert_url": "https://www.googleapis.com/oauth2/v1/certs",
    "client_x509_cert_url": "https://www.googleapis.com/robot/v1/metadata/x509/purchases%40api-6512244573301337239-542013.iam.gserviceaccount.com"
}
